# Blender MTL File: 'testmap.blend'
# Material Count: 3

newmtl None
Ns 0
Ka 0.000000 0.000000 0.000000
Kd 0.8 0.8 0.8
Ks 0.8 0.8 0.8
d 1
illum 2
map_Kd /home/user/Downloads/PokemonUnity-beta/TOOLS/PokeMapEditor/testtex.png

newmtl Nonestair_te
Ns 96.078431
Ka 1.000000 1.000000 1.000000
Kd 0.640000 0.640000 0.640000
Ks 0.500000 0.500000 0.500000
Ke 0.000000 0.000000 0.000000
Ni 1.000000
d 1.000000
illum 2
map_Kd /home/user/Downloads/PokemonUnity-beta/TOOLS/Terrain Models/TexStair.png

newmtl Nonestair_te.001
Ns 96.078431
Ka 1.000000 1.000000 1.000000
Kd 0.640000 0.640000 0.640000
Ks 0.500000 0.500000 0.500000
Ke 0.000000 0.000000 0.000000
Ni 1.000000
d 1.000000
illum 2
map_Kd /home/user/Downloads/PokemonUnity-beta/TOOLS/Terrain Models/TexStair.png
